{
  "name": "Practice01",
  "projectId": "cbf525d6-a534-432c-9d5d-c82ea08fb217",
  "description": "Generic Value and making basic operations with its values.",
  "main": "Main.xaml",
  "dependencies": {
    "UiPath.Excel.Activities": "[2.23.2-preview]",
    "UiPath.Mail.Activities": "[1.22.1]",
    "UiPath.System.Activities": "[24.2.0-preview]",
    "UiPath.Testing.Activities": "[24.2.0-preview]",
    "UiPath.UIAutomation.Activities": "[24.2.0-preview]"
  },
  "webServices": [],
  "entitiesStores": [],
  "schemaVersion": "4.0",
  "studioVersion": "24.2.1.0",
  "projectVersion": "1.0.0",
  "runtimeOptions": {
    "autoDispose": false,
    "netFrameworkLazyLoading": false,
    "isPausable": true,
    "isAttended": false,
    "requiresUserInteraction": true,
    "supportsPersistence": false,
    "workflowSerialization": "DataContract",
    "excludedLoggedData": [
      "Private:*",
      "*password*"
    ],
    "executionType": "Workflow",
    "readyForPiP": false,
    "startsInPiP": false,
    "mustRestoreAllDependencies": true,
    "pipType": "ChildSession"
  },
  "designOptions": {
    "projectProfile": "Developement",
    "outputType": "Process",
    "libraryOptions": {
      "includeOriginalXaml": false,
      "privateWorkflows": []
    },
    "processOptions": {
      "ignoredFiles": []
    },
    "fileInfoCollection": [],
    "saveToCloud": false
  },
  "expressionLanguage": "VisualBasic",
  "entryPoints": [
    {
      "filePath": "Main.xaml",
      "uniqueId": "e056ce85-a52b-435a-aa51-faa84e434d2a",
      "input": [],
      "output": []
    }
  ],
  "isTemplate": false,
  "templateProjectData": {},
  "publishData": {},
  "targetFramework": "Windows"
}